last_name,first_name,driver_license
Shevchenko,Anastasia,B
(1 row)
date,passengers_cnt,trip_price
2019-12-09 20:03:41.713387,25,273750
2019-12-09 18:41:33.103285,25,273750
(2 rows)
title,distance,duration,destination_name,source_name
Warsaw sightseeing from Lviv (from Lviv opera),700,2160,Warsaw Chopin,Lviv opera
(1 row)
manufacturer,model,first_name,last_name
Scania,Ikarus E99,Serhii,Juk
Mercedes-benz,Tourismo,Serhii,Juk
Ikarus,870,Serhii,Juk
Ikarus,280,Serhii,Juk
Volvo,9700,Serhii,Juk
Scania,Ikarus E99,Yurii,Panchenko
Mercedes-benz,Tourismo,Yurii,Panchenko
Ikarus,870,Yurii,Panchenko
Ikarus,280,Yurii,Panchenko
Volvo,9700,Yurii,Panchenko
(10 rows)
id,first_name,last_name,driver_license
1,Petro,Melnyk,
5,Petro,Topylko,
(2 rows)
average_bill
273750
(1 row)
type,count
historical,2
sightseeing,1
(2 rows)
title
Lviv historical trip from Kiev (from Kiev Boryspil)
(1 row)
id,title
2,Lviv historical trip from Kiev (from Kiev Boryspil)
3,Lviv historical trip from Kiev
(2 rows)
trip_id
(0 rows)
title,city_code,coordinates
Lviv opera,LWO, 49.84 N,  024.03 E
Kiev Boryspil,KBP, 50.34 N,  030.89 E
Warsaw Chopin,WAW, 52.17 N,  020.97 E
(3 rows)
trip_id
(0 rows)
id,title,duration,distance,capacity,type,estimated_price,source,destination
1,Warsaw sightseeing from Lviv (from Lviv opera),2160,700,60,sightseeing,469350,Lviv opera,Warsaw Chopin
2,Lviv historical trip from Kiev (from Kiev Boryspil),1080,500,30,historical,254750,Kiev Boryspil,Lviv opera
3,Lviv historical trip from Kiev,1080,500,30,historical,254750,Kiev Boryspil,Lviv opera
(3 rows)
title,type,start_date,end_date,manufacturer,model,first_name,last_name
Lviv historical trip from Kiev (from Kiev Boryspil),historical,2019-12-09 18:41:33.103285,2019-12-10 12:41:33.103285,Scania,Ikarus E99,Serhii,Juk
Lviv historical trip from Kiev,historical,2019-12-09 20:03:41.713387,2019-12-10 14:03:41.713387,Scania,Ikarus E99,Serhii,Juk
(2 rows)
date,title,paid_by_fname,paid_by_lname,total_profit
2019-12-09 18:41:33.103285,Lviv historical trip from Kiev (from Kiev Boryspil),Petro,Melnyk,547500
2019-12-09 20:03:41.713387,Lviv historical trip from Kiev,Petro,Melnyk,547500
(2 rows)
first_name,last_name,title,type,amount,paid_on,total_paid
Petro,Melnyk,Lviv historical trip from Kiev (from Kiev Boryspil),historical,273750,2019-10-09 18:45:52.621625,821250
Petro,Melnyk,Lviv historical trip from Kiev,historical,273750,2019-11-30 20:04:03.758236,821250
Petro,Melnyk,Lviv historical trip from Kiev,historical,273750,2019-10-09 20:04:03.758236,821250
(3 rows)
